INDEX VERSION 1.131+G:\CUMULUS\ASSNG\ems\.metadata\.plugins\org.eclipse.jdt.core
3166510744.index
3370476505.index
2552583684.index
1821581184.index
1440596881.index
3535804917.index
4110764446.index
1865797976.index
3239511383.index
3249659615.index
3565963143.index
1165381219.index
3082530044.index
2061119976.index
1141047566.index
1774337791.index
1249639122.index
3707833080.index
1508301878.index
2746849417.index
531704907.index
2136184665.index
60423043.index
1088592618.index
1474168828.index
584434594.index
3049212385.index
3784721197.index
275135166.index
2476325865.index
4271554849.index
1381569277.index
615343697.index
579018657.index
2030388586.index
3805199801.index
3618016905.index
140287192.index
1144378735.index
1119950391.index
2197264045.index
857927949.index
736569656.index
1396923773.index
2076288138.index
4156134815.index
3158175737.index
3102377028.index
3772163959.index
1715455385.index
3657024060.index
2168704705.index
2391793478.index
1018545800.index
3163051262.index
2442366928.index
1464245383.index
1550164986.index
1509315571.index
512953704.index
2720466010.index
623334914.index
2389657827.index
1849541914.index
1830785141.index
1237464127.index
1797158946.index
2347313214.index
809923885.index
1740634972.index
3856433349.index
297448155.index
1885253375.index
2110196564.index
266157545.index
2281561361.index
3763953407.index
3767518192.index
70713668.index
234704369.index
3392555286.index
2392526766.index
307019978.index
534308356.index
3419194701.index
2722796120.index
374596554.index
2022348062.index
3043206317.index
615214612.index
463742570.index
2383424372.index
